{
  "sales": [
    {"Client": "Fantastic Flipflops", "UnitsSold": 27, "Income": 9450, "Cost": 5323 },
    {"Client": "Advanced Acrobatic Androids", "UnitsSold": 5, "Income": 20133, "Cost": 19853 },
    {"Client": "Chunky Chewbacca Cookies", "UnitsSold": 10, "Income": 2500, "Cost": 50 },
    {"Client": "Legally Legal Services", "UnitsSold": 8, "Income": 8500, "Cost": 432 },
    {"Client": "Deviously Delicious Delicacies", "UnitsSold": 13, "Income": 15250, "Cost": 6125 },
    {"Client": "Green Garden Grandpas", "UnitsSold": 15, "Income": 17500, "Cost": 12500 },
    {"Client": "Perky Pet Pampering", "UnitsSold": 2, "Income": 1000, "Cost": 325 },
    {"Client": "La Loca Lunches", "UnitsSold": 3, "Income": 750, "Cost": 250 }
  ]
}
